^I:\CLOUD\DROPBOX\DISPLAYS\CLIENTSOCKET\CLIENTSOCKET\CONTROLS\USCDISPLAY.RESX
C:\PROGRAM FILES (X86)\MICROSOFT SDKS\WINDOWS\V7.0A\BIN\ES\RESGEN.RESOURCES.DLL
^I:\CLOUD\DROPBOX\DISPLAYS\CLIENTSOCKET\CLIENTSOCKET\CONTROLS\USCMESSAGE.RESX
^I:\CLOUD\DROPBOX\DISPLAYS\CLIENTSOCKET\CLIENTSOCKET\CONTROLS\USCRELAY.RESX
^I:\CLOUD\DROPBOX\DISPLAYS\CLIENTSOCKET\CLIENTSOCKET\PROPERTIES\RESOURCES.RESX
